{
    "pagination": {
        "pageSize": 50,
        "currentPage": 14,
        "totalItems": 668,
        "totalPages": 14
    },
    "resourceBaseUri": "http://reports.sem-o.com/documents",
    "items": [
        {
            "_id": "5df8d85b9620d92f67663f64",
            "Date": "2019-12-17",
            "PublishTime": "2019-12-17T13:02:50",
            "DPuG_ID": "BM-095",
            "ReportName": "Balancing and Imbalance Market Cost View",
            "Group": [
                "Settlement Data"
            ],
            "Dynamic": true,
            "ResourceName": "PUB_30MinImbalCost_201912171200.xml"
        },
        {
            "_id": "5df8df629620d94048240624",
            "Date": "2019-12-17",
            "PublishTime": "2019-12-17T13:32:11",
            "DPuG_ID": "BM-095",
            "ReportName": "Balancing and Imbalance Market Cost View",
            "Group": [
                "Settlement Data"
            ],
            "Dynamic": true,
            "ResourceName": "PUB_30MinImbalCost_201912171230.xml"
        },
        {
            "_id": "5df8e66d9620d953be341ac4",
            "Date": "2019-12-17",
            "PublishTime": "2019-12-17T14:02:42",
            "DPuG_ID": "BM-095",
            "ReportName": "Balancing and Imbalance Market Cost View",
            "Group": [
                "Settlement Data"
            ],
            "Dynamic": true,
            "ResourceName": "PUB_30MinImbalCost_201912171300.xml"
        },
        {
            "_id": "5df8ed749620d9653d42e084",
            "Date": "2019-12-17",
            "PublishTime": "2019-12-17T14:33:21",
            "DPuG_ID": "BM-095",
            "ReportName": "Balancing and Imbalance Market Cost View",
            "Group": [
                "Settlement Data"
            ],
            "Dynamic": true,
            "ResourceName": "PUB_30MinImbalCost_201912171330.xml"
        },
        {
            "_id": "5df8f47a9620d9783e587c44",
            "Date": "2019-12-17",
            "PublishTime": "2019-12-17T15:04:04",
            "DPuG_ID": "BM-095",
            "ReportName": "Balancing and Imbalance Market Cost View",
            "Group": [
                "Settlement Data"
            ],
            "Dynamic": true,
            "ResourceName": "PUB_30MinImbalCost_201912171400.xml"
        },
        {
            "_id": "5df8fb839620d90ab95ae1b4",
            "Date": "2019-12-17",
            "PublishTime": "2019-12-17T15:32:28",
            "DPuG_ID": "BM-095",
            "ReportName": "Balancing and Imbalance Market Cost View",
            "Group": [
                "Settlement Data"
            ],
            "Dynamic": true,
            "ResourceName": "PUB_30MinImbalCost_201912171430.xml"
        },
        {
            "_id": "5df9028c9620d91d8877c264",
            "Date": "2019-12-17",
            "PublishTime": "2019-12-17T16:03:08",
            "DPuG_ID": "BM-095",
            "ReportName": "Balancing and Imbalance Market Cost View",
            "Group": [
                "Settlement Data"
            ],
            "Dynamic": true,
            "ResourceName": "PUB_30MinImbalCost_201912171500.xml"
        },
        {
            "_id": "5df9099e9620d92eb304fa5e",
            "Date": "2019-12-17",
            "PublishTime": "2019-12-17T16:33:07",
            "DPuG_ID": "BM-095",
            "ReportName": "Balancing and Imbalance Market Cost View",
            "Group": [
                "Settlement Data"
            ],
            "Dynamic": true,
            "ResourceName": "PUB_30MinImbalCost_201912171530.xml"
        },
        {
            "_id": "5df9109b9620d9411e13dc24",
            "Date": "2019-12-17",
            "PublishTime": "2019-12-17T17:02:52",
            "DPuG_ID": "BM-095",
            "ReportName": "Balancing and Imbalance Market Cost View",
            "Group": [
                "Settlement Data"
            ],
            "Dynamic": true,
            "ResourceName": "PUB_30MinImbalCost_201912171600.xml"
        },
        {
            "_id": "5df917a29620d9528b6b0bf4",
            "Date": "2019-12-17",
            "PublishTime": "2019-12-17T17:32:09",
            "DPuG_ID": "BM-095",
            "ReportName": "Balancing and Imbalance Market Cost View",
            "Group": [
                "Settlement Data"
            ],
            "Dynamic": true,
            "ResourceName": "PUB_30MinImbalCost_201912171630.xml"
        },
        {
            "_id": "5df91eaa9620d964c9112d36",
            "Date": "2019-12-17",
            "PublishTime": "2019-12-17T18:02:29",
            "DPuG_ID": "BM-095",
            "ReportName": "Balancing and Imbalance Market Cost View",
            "Group": [
                "Settlement Data"
            ],
            "Dynamic": true,
            "ResourceName": "PUB_30MinImbalCost_201912171700.xml"
        },
        {
            "_id": "5df925b39620d976cb2cadf8",
            "Date": "2019-12-17",
            "PublishTime": "2019-12-17T18:32:14",
            "DPuG_ID": "BM-095",
            "ReportName": "Balancing and Imbalance Market Cost View",
            "Group": [
                "Settlement Data"
            ],
            "Dynamic": true,
            "ResourceName": "PUB_30MinImbalCost_201912171730.xml"
        },
        {
            "_id": "5df929389620d901923f77c8",
            "Date": "2019-12-17",
            "PublishTime": "2019-12-17T19:02:52",
            "DPuG_ID": "BM-095",
            "ReportName": "Balancing and Imbalance Market Cost View",
            "Group": [
                "Settlement Data"
            ],
            "Dynamic": true,
            "ResourceName": "PUB_30MinImbalCost_201912171800.xml"
        },
        {
            "_id": "5df933c29620d91b704ca784",
            "Date": "2019-12-17",
            "PublishTime": "2019-12-17T19:32:52",
            "DPuG_ID": "BM-095",
            "ReportName": "Balancing and Imbalance Market Cost View",
            "Group": [
                "Settlement Data"
            ],
            "Dynamic": true,
            "ResourceName": "PUB_30MinImbalCost_201912171830.xml"
        },
        {
            "_id": "5df93acb9620d92e21490294",
            "Date": "2019-12-17",
            "PublishTime": "2019-12-17T20:02:40",
            "DPuG_ID": "BM-095",
            "ReportName": "Balancing and Imbalance Market Cost View",
            "Group": [
                "Settlement Data"
            ],
            "Dynamic": true,
            "ResourceName": "PUB_30MinImbalCost_201912171900.xml"
        },
        {
            "_id": "5df941d19620d93ee82bc714",
            "Date": "2019-12-17",
            "PublishTime": "2019-12-17T20:32:08",
            "DPuG_ID": "BM-095",
            "ReportName": "Balancing and Imbalance Market Cost View",
            "Group": [
                "Settlement Data"
            ],
            "Dynamic": true,
            "ResourceName": "PUB_30MinImbalCost_201912171930.xml"
        },
        {
            "_id": "5df948db9620d951c96b5634",
            "Date": "2019-12-17",
            "PublishTime": "2019-12-17T21:03:30",
            "DPuG_ID": "BM-095",
            "ReportName": "Balancing and Imbalance Market Cost View",
            "Group": [
                "Settlement Data"
            ],
            "Dynamic": true,
            "ResourceName": "PUB_30MinImbalCost_201912172000.xml"
        },
        {
            "_id": "5df94fe19620d9627f01f854",
            "Date": "2019-12-17",
            "PublishTime": "2019-12-17T21:33:46",
            "DPuG_ID": "BM-095",
            "ReportName": "Balancing and Imbalance Market Cost View",
            "Group": [
                "Settlement Data"
            ],
            "Dynamic": true,
            "ResourceName": "PUB_30MinImbalCost_201912172030.xml"
        }
    ]
}